Multiaged experiment – 10-year analysis - 4 Fuel modeling
…
boundary (singular) fit: see help('isSingular')
boundary (singular) fit: see help('isSingular')
boundary (singular) fit: see help('isSingular')
boundary (singular) fit: see help('isSingular')

# A tibble: 48 × 9
   class model effect term        estimate std.error statistic    df    p.value
   <fct> <chr> <chr>  <chr>          <dbl>     <dbl>     <dbl> <dbl>      <dbl>
 1 onehr mod1  fixed  (Intercept)   0.598      0.191     3.13     NA NA        
 2 onehr mod2  fixed  (Intercept)   0.598      0.191     3.13     64  0.00265  
 3 onehr mod1  fixed  treatmentha   0.603      0.256     2.35     NA NA        
 4 onehr mod2  fixed  treatmentha   0.603      0.256     2.35      9  0.0433   
 5 onehr mod1  fixed  treatmenthd   0.439      0.256     1.71     NA NA        
 6 onehr mod2  fixed  treatmenthd   0.439      0.256     1.71      9  0.121    
 7 onehr mod1  fixed  treatmentld   0.0697     0.256     0.272    NA NA        
 8 onehr mod2  fixed  treatmentld   0.0697     0.256     0.272     9  0.792    
 9 tenhr mod1  fixed  (Intercept)   3.75       0.784     4.78     NA NA        
10 tenhr mod2  fixed  (Intercept)   3.75       0.784     4.78     64  0.0000106
# ℹ 38 more rows
…
