Redwoood multi-age experiment - 3 Calculate fuel loading
…
Joining with `by = join_by(site, treatment, corner, azi)`

Warning in left_join(summarize(group_by(mutate(d$coarse_woody, class = if_else(decay > : Detected an unexpected many-to-many relationship between `x` and `y`.
ℹ Row 22 of `x` matches multiple rows in `y`.
ℹ Row 8 of `y` matches multiple rows in `x`.
ℹ If a many-to-many relationship is expected, set `relationship =
  "many-to-many"` to silence this warning.

Joining with `by = join_by(site, treatment)`
Joining with `by = join_by(class)`

# A tibble: 152 × 12
   site  treatment corner   azi class    sum_d2 slope thoushr_length     G     a
   <chr> <chr>     <chr>  <dbl> <chr>     <dbl> <dbl>          <dbl> <dbl> <dbl>
 1 camp6 gs        e        225 thoushr…  173      72             10  0.4   1.02
 2 camp6 gs        e        315 thoushr…   72.2     1             10  0.33  1.01
 3 camp6 gs        e        315 thoushr… 1178.      1             10  0.4   1.02
 4 camp6 gs        n        135 thoushr…  216.      2             10  0.33  1.01
 5 camp6 gs        n        135 thoushr…  550.      2             10  0.4   1.02
 6 camp6 gs        n        225 thoushr…  676       4             10  0.4   1.02
 7 camp6 gs        s        315 thoushr…  254.      4             10  0.33  1.01
 8 camp6 gs        s        315 thoushr…  293.      4             10  0.4   1.02
 9 camp6 gs        w        135 thoushr…  424.     17             10  0.33  1.01
10 camp6 gs        w        135 thoushr…  882.     17             10  0.4   1.02
# ℹ 142 more rows
# ℹ 2 more variables: d2 <dbl>, load <dbl>
…
